In file included from ./primitives/transaction.h:10:0,
                 from bloom.cpp:7:
./amount.h:26:49: warning: integer overflow in expression [-Woverflow]
 static const CAmount MAX_MONEY = 42000000000000 * COIN;
                                                 ^
